TF7_Regression_beta
…
Ahora vamos es hacer el primer análisis de regresión donde nuestra respuesta es una proporción.

library(ggversa) # paquete para los datos
attach(dipodium)
dipodium

## # A tibble: 1,363 x 21
##    `Tree Number` `Tree species`   DBH `Plant number` `Ramet number` Distance
##            <int> <chr>          <dbl>          <int>          <int>    <dbl>
##  1             1 E.o             75                1              1     2.47
##  2             1 E.o             76                2              1     1.97
##  3             2 E.o             76                3              1     1.95
##  4             3 E.o             58                4              1     3.24
##  5             4 E.o             NA                5              1     0.85
##  6             5 E.o             59                6              1     2.62
##  7             5 E.o             59                7              1     2.82
##  8             6 E.o              8                8              1     3.12
##  9             7 E.o             11.5              9              1     1.12
## 10             8 E.o              8.5             10              1     0.75
## # … with 1,353 more rows, and 15 more variables: Orientation <dbl>,
## #   Number_of_Flowers <int>, Height_Inflo <int>, Herbivory <chr>,
## #   RowPosition_NF <int>, Number_Flowers_position <int>,
## #   Number_of_fruits <int>, Perc_FR_set <dbl>, pardalinum_or_roseum <chr>,
## #   Fruit_position_effect <int>, Frutos_si_o_no <int>,
## #   P_or_R_Infl_Lenght <chr>, `Num of fruits` <int>, Species_Name <chr>,
## #   `Cardinal orientation` <int>
…
dp2$response=predict(modelpropFr, type = "response")
#dp2$link=predict(modelpropFr, type = "link")
dp2$precision=predict(modelpropFr, type = "precision")
dp2$variance=predict(modelpropFr, type = "variance")
dp2$quantile_.25=predict(modelpropFr, type = "quantile", at = c(0.25))
dp2$quantile_.50=predict(modelpropFr, type = "quantile", at = c(0.50))
dp2$quantile_.75=predict(modelpropFr, type = "quantile", at = c(0.75))
dp2$quantile_.05=predict(modelpropFr, type = "quantile", at = c(0.05))
dp2$quantile_.95=predict(modelpropFr, type = "quantile", at = c(0.95))
dp2

## # A tibble: 62 x 10
##    Number_of_Flowe… PropFR response precision variance quantile_.25 quantile_.50
##               <dbl>  <dbl>    <dbl>     <dbl>    <dbl>        <dbl>        <dbl>
##  1                3 0.0001   0.0257      4.69  0.00439   0.00000151     0.000475
##  2                4 0.0001   0.0278      4.69  0.00475   0.00000371     0.000748
##  3                5 0.0001   0.0302      4.69  0.00514   0.00000848     0.00114 
##  4               11 0.0001   0.0486      4.69  0.00811   0.000372       0.00795 
##  5               13 0.0358   0.0568      4.69  0.00941   0.000928       0.0129  
##  6               13 0.0938   0.0568      4.69  0.00941   0.000928       0.0129  
##  7               13 0.0001   0.0568      4.69  0.00941   0.000928       0.0129  
##  8               14 0.0001   0.0614      4.69  0.0101    0.00139        0.0160  
##  9               14 0.364    0.0614      4.69  0.0101    0.00139        0.0160  
## 10               14 0.105    0.0614      4.69  0.0101    0.00139        0.0160  
## # … with 52 more rows, and 3 more variables: quantile_.75 <dbl>,
## #   quantile_.05 <dbl>, quantile_.95 <dbl>
…
